%YAML 1.1
%TAG !u! tag:unity3d.com,2011:
--- !u!114 &11400000
MonoBehaviour:
  m_ObjectHideFlags: 0
  m_CorrespondingSourceObject: {fileID: 0}
  m_PrefabInstance: {fileID: 0}
  m_PrefabAsset: {fileID: 0}
  m_GameObject: {fileID: 0}
  m_Enabled: 1
  m_EditorHideFlags: 0
  m_Script: {fileID: 11500000, guid: 4bf6c12d4c9fe4e278bd874aa53dc2fd, type: 3}
  m_Name: AIBehaviour - Basic
  m_EditorClassIdentifier: 
  durationForStayingIdle:
    UseConstant: 1
    ConstantValue: {x: 0.48596042, y: 1.9985704}
    Variable: {fileID: 0}
    min: 0
    max: 5
  probabilityToShoot: 0.4
  physicsImpact: {fileID: 11400000, guid: 4bc659f43beaf406b854de0fc4112aed, type: 2}
  onDeathParticles: []
